[
  {
    "ent_seq": 1193610,
    "k_ele": [
      {
        "ke_pri": { "ichi": 1, "news": 1, "nf": 2 },
        "keb": "火"
      }
    ],
    "r_ele": [
      {
        "re_pri": { "ichi": 1, "news": 1, "nf": 2 },
        "reb": "ひ"
      }
    ],
    "sense": [
      {
        "gloss": [
          { "content": "fire" },
          { "content": "flame" },
          { "content": "blaze" }
        ],
        "pos": ["&n;", "&n-suf;"]
      }
    ]
  },
  {
    "ent_seq": 1245290,
    "k_ele": [
      {
        "ke_pri": { "ichi": 1 },
        "keb": "空"
      },
      {
        "ke_inf": ["&oK;"],
        "keb": "虚"
      }
    ],
    "r_ele": [
      {
        "re_pri": { "ichi": 1 },
        "reb": "そら"
      }
    ],
    "sense": [
      {
        "gloss": [
          { "content": "sky" },
          { "content": "the air" },
          { "content": "the heavens" }
        ],
        "pos": ["&n;"]
      },
      {
        "gloss": [
          { "content": "weather" }
        ],
        "pos": ["&n;"]
      },
      {
        "gloss": [
          { "content": "far-off place" },
          { "content": "distant place" }
        ],
        "pos": ["&n;"]
      },
      {
        "gloss": [
          { "content": "state of mind" },
          { "content": "feeling" }
        ],
        "pos": ["&n;"],
        "s_inf": ["often as 〜空もない"]
      },
      {
        "gloss": [
          { "content": "(from) memory" },
          { "content": "(by) heart" }
        ],
        "pos": ["&n;"],
        "s_inf": ["usu. as 空で"]
      },
      {
        "gloss": [
          { "content": "falsehood" },
          { "content": "lie" }
        ],
        "pos": ["&n;"]
      },
      {
        "gloss": [
          { "content": "somehow" },
          { "content": "vaguely" }
        ],
        "pos": ["&n-pref;"],
        "s_inf": ["before an adjective"]
      },
      {
        "gloss": [
          { "content": "fake" }
        ],
        "pos": ["&n-pref;"],
        "s_inf": ["before a noun or a verb"]
      }
    ]
  },
  {
    "ent_seq": 1371260,
    "k_ele": [
      {
        "ke_pri": { "ichi": 1, "news": 1, "nf": 1 },
        "keb": "水"
      }
    ],
    "r_ele": [
      {
        "re_pri": { "ichi": 1, "news": 1, "nf": 1 },
        "reb": "みず"
      },
      {
        "reb": "み"
      }
    ],
    "sense": [
      {
        "gloss": [
          { "content": "water (esp. cool, fresh water, e.g. drinking water)" }
        ],
        "pos": ["&n;"],
        "s_inf": ["み is generally used in compounds"],
        "xref": ["湯・ゆ・1"]
      },
      {
        "gloss": [
          { "content": "fluid (esp. in an animal tissue)" },
          { "content": "liquid" }
        ],
        "pos": ["&n;"]
      },
      {
        "gloss": [
          { "content": "flood" },
          { "content": "floodwaters" }
        ],
        "pos": ["&n;"]
      },
      {
        "field": ["&sumo;"],
        "gloss": [
          { "content": "water offered to wrestlers just prior to a bout" }
        ],
        "pos": ["&n;"],
        "stagr": ["みず"],
        "xref": ["力水"]
      },
      {
        "field": ["&sumo;"],
        "gloss": [
          {
            "content": "break granted to wrestlers engaged in a prolonged bout"
          }
        ],
        "pos": ["&n;"],
        "stagr": ["みず"],
        "xref": ["水入り"]
      }
    ]
  },
  {
    "ent_seq": 1445270,
    "k_ele": [
      {
        "ke_pri": { "ichi": 1, "news": 1, "nf": 4 },
        "keb": "土"
      },
      {
        "keb": "地"
      }
    ],
    "r_ele": [
      {
        "re_pri": { "ichi": 1, "news": 1, "nf": 4 },
        "reb": "つち"
      },
      {
        "re_restr": ["地"],
        "reb": "つし"
      }
    ],
    "sense": [
      {
        "gloss": [
          { "content": "earth" },
          { "content": "soil" },
          { "content": "dirt" },
          { "content": "clay" },
          { "content": "mud" }
        ],
        "pos": ["&n;"]
      },
      {
        "gloss": [
          {
            "content": "the earth (historically, esp. as opposed to the heavens)"
          },
          { "content": "the ground" },
          { "content": "the land" }
        ],
        "pos": ["&n;"]
      },
      {
        "gloss": [
          { "content": "low-quality torinoko-gami (containing mud)" }
        ],
        "pos": ["&n;"],
        "xref": ["鳥の子紙"]
      },
      {
        "gloss": [
          {
            "content": "(period of) refraining from construction in the direction of the god of the earth (in Onmyōdō)"
          }
        ],
        "pos": ["&n;"],
        "s_inf": ["also written as 犯土, 椎, 槌"],
        "xref": ["陰陽道"]
      }
    ]
  }
]
